lab_jtype/transcript
# //  ModelSim SE-64 10.4b May 26 2015 Linux 4.15.0-52-generic
# //
# //  Copyright 1991-2015 Mentor Graphics Corporation
# //  All Rights Reserved.
# //
# //  THIS WORK CONTAINS TRADE SECRET AND PROPRIETARY INFORMATION
# //  WHICH IS THE PROPERTY OF MENTOR GRAPHICS CORPORATION OR ITS
# //  LICENSORS AND IS SUBJECT TO LICENSE TERMS.
# //  THIS DOCUMENT CONTAINS TRADE SECRETS AND COMMERCIAL OR FINANCIAL
# //  INFORMATION THAT ARE PRIVILEGED, CONFIDENTIAL, AND EXEMPT FROM
# //  DISCLOSURE UNDER THE FREEDOM OF INFORMATION ACT, 5 U.S.C. SECTION 552.
# //  FURTHERMORE, THIS INFORMATION IS PROHIBITED FROM DISCLOSURE UNDER
# //  THE TRADE SECRETS ACT, 18 U.S.C. SECTION 1905.
# //
# do scripts/test.tcl
# ==== CSCE611 RI Lab Test Script ===============================================
# 
# TIP: you can run this test again without re-starting modelsim using the command
# do scripts/test.tcl
# 
# ------ Compile Verilog Files --------------------------------------------------
# Model Technology ModelSim SE-64 vlog 10.4b Compiler 2015.05 May 26 2015
# Start time: 18:09:17 on Dec 04,2019
# vlog -reportprogress 300 -novopt CSCE611_lab_jtype.sv alu.sv cpu.sv regfile.sv testbench.sv 
# -- Compiling module CSCE611_lab_jtype
# -- Compiling module alu
# -- Compiling module cpu
# -- Compiling module regfile
# -- Compiling module CSCE611_jtype_testbench
# 
# Top level modules:
# 	CSCE611_lab_jtype
# 	CSCE611_jtype_testbench
# End time: 18:09:18 on Dec 04,2019, Elapsed time: 0:00:01
# Errors: 0, Warnings: 0
# ------ Load Design ------------------------------------------------------------
# vsim -novopt work.CSCE611_jtype_testbench 
# Start time: 18:09:18 on Dec 04,2019
# ** Warning: (vsim-8891) All optimizations are turned off because the -novopt switch is in effect. This will cause your simulation to run very slowly. If you are using this switch to preserve visibility for Debug or PLI features please see the User's Manual section on Preserving Object Visibility with vopt.
# Loading sv_std.std
# Loading work.CSCE611_jtype_testbench
# Loading work.cpu
# Loading work.alu
# Loading work.regfile
# ------ Setup Waves ------------------------------------------------------------
# ------ Simulate ---------------------------------------------------------------
# instr count:    0, instr: 00, instr offset:    0
# instr count:    1, instr: 00, instr offset:    1
# instr count:    2, instr: 00, instr offset:    2
# instr count:    3, instr: 00, instr offset:    4
# instr count:    4, instr: 01, instr offset:    4
# instr count:    8, instr: 01, instr offset:    4
# instr count:   12, instr: 11, instr offset:    4
# instr count:    4, instr: 00, instr offset:    x
# instr count:    5, instr: 01, instr offset:    4
# instr count:    9, instr: 11, instr offset:   10
# instr count:   10, instr: 11, instr offset:    5
# instr count:    5, instr: 10, instr offset:    8
# instr count:   10, instr: 11, instr offset:   10
# instr count:   10, instr: 10, instr offset:    8
# instr count:   11, instr: 10, instr offset:    8
# instr count:   11, instr: 00, instr offset:    x
# instr count:   12, instr: 00, instr offset:    x
# instr count:   13, instr: 00, instr offset:    x
# instr count:   14, instr: 00, instr offset:    x
# instr count:   15, instr: 00, instr offset:    x
# instr count:   16, instr: 00, instr offset:    x
# instr count:   17, instr: 00, instr offset:    x
# instr count:   18, instr: 00, instr offset:    x
# instr count:   19, instr: 00, instr offset:    x
# instr count:   20, instr: 00, instr offset:    x
# instr count:   21, instr: 00, instr offset:    x
# instr count:   22, instr: 00, instr offset:    x
# instr count:   23, instr: 00, instr offset:    x
# instr count:   24, instr: 00, instr offset:    x
# instr count:   25, instr: 00, instr offset:    x
# instr count:   26, instr: 00, instr offset:    x
# instr count:   27, instr: 00, instr offset:    x
# instr count:   28, instr: 00, instr offset:    x
# instr count:   29, instr: 00, instr offset:    x
# instr count:   30, instr: 00, instr offset:    x
# instr count:   31, instr: 00, instr offset:    x
# instr count:   32, instr: 00, instr offset:    x
# instr count:   33, instr: 00, instr offset:    x
# instr count:   34, instr: 00, instr offset:    x
# instr count:   35, instr: 00, instr offset:    x
# instr count:   36, instr: 00, instr offset:    x
# instr count:   37, instr: 00, instr offset:    x
# instr count:   38, instr: 00, instr offset:    x
# instr count:   39, instr: 00, instr offset:    x
# instr count:   40, instr: 00, instr offset:    x
# instr count:   41, instr: 00, instr offset:    x
# instr count:   42, instr: 00, instr offset:    x
# instr count:   43, instr: 00, instr offset:    x
# instr count:   44, instr: 00, instr offset:    x
# instr count:   45, instr: 00, instr offset:    x
# instr count:   46, instr: 00, instr offset:    x
# instr count:   47, instr: 00, instr offset:    x
# instr count:   48, instr: 00, instr offset:    x
# instr count:   49, instr: 00, instr offset:    x
# instr count:   50, instr: 00, instr offset:    x
# instr count:   51, instr: 00, instr offset:    x
# instr count:   52, instr: 00, instr offset:    x
# instr count:   53, instr: 00, instr offset:    x
# instr count:   54, instr: 00, instr offset:    x
# instr count:   55, instr: 00, instr offset:    x
# instr count:   56, instr: 00, instr offset:    x
# instr count:   57, instr: 00, instr offset:    x
# instr count:   58, instr: 00, instr offset:    x
# instr count:   59, instr: 00, instr offset:    x
# instr count:   60, instr: 00, instr offset:    x
# instr count:   61, instr: 00, instr offset:    x
# instr count:   62, instr: 00, instr offset:    x
# instr count:   63, instr: 00, instr offset:    x
# instr count:   64, instr: 00, instr offset:    x
# instr count:   65, instr: 00, instr offset:    x
# ** Note: $stop    : testbench.sv(33)
#    Time: 710 ns  Iteration: 0  Instance: /CSCE611_jtype_testbench
# Break in Module CSCE611_jtype_testbench at testbench.sv line 33
# .main_pane.transcript.interior.cs.body.t
# .main_pane.wave.interior.cs.body.pw.wf
# 0 ns
# 746 ns
# ------ Done -------------------------------------------------------------------
# Design compiled and simulated successfully! (hint: this does not mean
# your design is functionally correct, only that it is syntactically 
# valid Verilog).
# 
# HINT: you can run the simulation again without restarting modelsim using the
# following command:
# 
# do ./scripts/test.tcl
do scripts/test.tcl
# ==== CSCE611 RI Lab Test Script ===============================================
# 
# TIP: you can run this test again without re-starting modelsim using the command
# do scripts/test.tcl
# 
# ------ Compile Verilog Files --------------------------------------------------
# Model Technology ModelSim SE-64 vlog 10.4b Compiler 2015.05 May 26 2015
# Start time: 18:11:29 on Dec 04,2019
# vlog -reportprogress 300 -novopt CSCE611_lab_jtype.sv alu.sv cpu.sv regfile.sv testbench.sv 
# -- Compiling module CSCE611_lab_jtype
# -- Compiling module alu
# -- Compiling module cpu
# -- Compiling module regfile
# -- Compiling module CSCE611_jtype_testbench
# 
# Top level modules:
# 	CSCE611_lab_jtype
# 	CSCE611_jtype_testbench
# End time: 18:11:29 on Dec 04,2019, Elapsed time: 0:00:00
# Errors: 0, Warnings: 0
# ------ Load Design ------------------------------------------------------------
# End time: 18:11:29 on Dec 04,2019, Elapsed time: 0:02:11
# Errors: 0, Warnings: 1
# vsim -novopt work.CSCE611_jtype_testbench 
# Start time: 18:11:29 on Dec 04,2019
# ** Warning: (vsim-8891) All optimizations are turned off because the -novopt switch is in effect. This will cause your simulation to run very slowly. If you are using this switch to preserve visibility for Debug or PLI features please see the User's Manual section on Preserving Object Visibility with vopt.
# Loading sv_std.std
# Loading work.CSCE611_jtype_testbench
# Loading work.cpu
# Loading work.alu
# Loading work.regfile
# ------ Setup Waves ------------------------------------------------------------
# ------ Simulate ---------------------------------------------------------------
# instr count:    0, instr: 00, instr offset: 0
# instr count:    1, instr: 00, instr offset: 0
# instr count:    2, instr: 00, instr offset: 0
# instr count:    3, instr: 00, instr offset: 0
# instr count:    4, instr: 01, instr offset: 0
# instr count:    8, instr: 01, instr offset: 0
# instr count:   12, instr: 11, instr offset: 0
# instr count:    4, instr: 00, instr offset: 0
# instr count:    5, instr: 01, instr offset: 0
# instr count:    9, instr: 11, instr offset: 0
# instr count:   10, instr: 11, instr offset: 0
# instr count:    5, instr: 10, instr offset: 0
# instr count:   10, instr: 11, instr offset: 0
# instr count:   10, instr: 10, instr offset: 0
# instr count:   11, instr: 10, instr offset: 0
# instr count:   11, instr: 00, instr offset: 0
# instr count:   12, instr: 00, instr offset: 0
# instr count:   13, instr: 00, instr offset: 0
# instr count:   14, instr: 00, instr offset: 0
# instr count:   15, instr: 00, instr offset: 0
# instr count:   16, instr: 00, instr offset: 0
# instr count:   17, instr: 00, instr offset: 0
# instr count:   18, instr: 00, instr offset: 0
# instr count:   19, instr: 00, instr offset: 0
# instr count:   20, instr: 00, instr offset: 0
# instr count:   21, instr: 00, instr offset: 0
# instr count:   22, instr: 00, instr offset: 0
# instr count:   23, instr: 00, instr offset: 0
# instr count:   24, instr: 00, instr offset: 0
# instr count:   25, instr: 00, instr offset: 0
# instr count:   26, instr: 00, instr offset: 0
# instr count:   27, instr: 00, instr offset: 0
# instr count:   28, instr: 00, instr offset: 0
# instr count:   29, instr: 00, instr offset: 0
# instr count:   30, instr: 00, instr offset: 0
# instr count:   31, instr: 00, instr offset: 0
# instr count:   32, instr: 00, instr offset: 0
# instr count:   33, instr: 00, instr offset: 0
# instr count:   34, instr: 00, instr offset: 0
# instr count:   35, instr: 00, instr offset: 0
# instr count:   36, instr: 00, instr offset: 0
# instr count:   37, instr: 00, instr offset: 0
# instr count:   38, instr: 00, instr offset: 0
# instr count:   39, instr: 00, instr offset: 0
# instr count:   40, instr: 00, instr offset: 0
# instr count:   41, instr: 00, instr offset: 0
# instr count:   42, instr: 00, instr offset: 0
# instr count:   43, instr: 00, instr offset: 0
# instr count:   44, instr: 00, instr offset: 0
# instr count:   45, instr: 00, instr offset: 0
# instr count:   46, instr: 00, instr offset: 0
# instr count:   47, instr: 00, instr offset: 0
# instr count:   48, instr: 00, instr offset: 0
# instr count:   49, instr: 00, instr offset: 0
# instr count:   50, instr: 00, instr offset: 0
# instr count:   51, instr: 00, instr offset: 0
# instr count:   52, instr: 00, instr offset: 0
# instr count:   53, instr: 00, instr offset: 0
# instr count:   54, instr: 00, instr offset: 0
# instr count:   55, instr: 00, instr offset: 0
# instr count:   56, instr: 00, instr offset: 0
# instr count:   57, instr: 00, instr offset: 0
# instr count:   58, instr: 00, instr offset: 0
# instr count:   59, instr: 00, instr offset: 0
# instr count:   60, instr: 00, instr offset: 0
# instr count:   61, instr: 00, instr offset: 0
# instr count:   62, instr: 00, instr offset: 0
# instr count:   63, instr: 00, instr offset: 0
# instr count:   64, instr: 00, instr offset: 0
# instr count:   65, instr: 00, instr offset: 0
# ** Note: $stop    : testbench.sv(33)
#    Time: 710 ns  Iteration: 0  Instance: /CSCE611_jtype_testbench
# Break in Module CSCE611_jtype_testbench at testbench.sv line 33
# .main_pane.transcript.interior.cs.body.t
# .main_pane.wave.interior.cs.body.pw.wf
# 0 ns
# 746 ns
# ------ Done -------------------------------------------------------------------
# Design compiled and simulated successfully! (hint: this does not mean
# your design is functionally correct, only that it is syntactically 
# valid Verilog).
# 
# HINT: you can run the simulation again without restarting modelsim using the
# following command:
# 
# do ./scripts/test.tcl
# End time: 20:22:38 on Dec 04,2019, Elapsed time: 2:11:09
# Errors: 0, Warnings: 1
